{
  "project_info": {
    "project_number": "926847169150",
    "firebase_url": "https://mfirebase-myd.firebaseio.com",
    "project_id": "mfirebase-myd",
    "storage_bucket": "mfirebase-myd.appspot.com"
  },
  "client": [
    {
      "client_info": {
        "mobilesdk_app_id": "1:926847169150:android:89263aba437a8439",
        "android_client_info": {
          "package_name": "com.nathpath.rxjavarealmvv"
        }
      },
      "oauth_client": [
        {
          "client_id": "926847169150-ak1umhf9sbn6a5ab0s6lsl8av3vqmnmr.apps.googleusercontent.com",
          "client_type": 3
        }
      ],
      "api_key": [
        {
          "current_key": "AIzaSyDgDBQJ_CG1scGRhBt0f9PPhMPYYbOdm8g"
        }
      ],
      "services": {
        "analytics_service": {
          "status": 1
        },
        "appinvite_service": {
          "status": 1,
          "other_platform_oauth_client": []
        },
        "ads_service": {
          "status": 2
        }
      }
    }
  ],
  "configuration_version": "1"
}